[
  // navigate window
  {
    "key": "ctrl+h",
    "command": "workbench.action.navigateLeft",
    "when": "filesExplorerFocus || terminalFocus || editorFocus && vim.active && vim.mode != 'Insert'"
  },
  {
    "key": "ctrl+j",
    "command": "workbench.action.navigateDown",
    "when": "filesExplorerFocus || terminalFocus || editorFocus && vim.active && vim.mode != 'Insert'"
  },
  {
    "key": "ctrl+k",
    "command": "workbench.action.navigateUp",
    "when": "filesExplorerFocus || terminalFocus || editorFocus && vim.active && vim.mode != 'Insert'"
  },
  {
    "key": "ctrl+l",
    "command": "workbench.action.navigateRight",
    "when": "filesExplorerFocus || terminalFocus || editorFocus && vim.active && vim.mode != 'Insert'"
  },
  // toggle termianl
  {
    "key": "ctrl+\\",
    "command": "workbench.action.terminal.toggleTerminal",
    "when": "terminalFocus || editorFocus"
  },
  // toggle explorer
  {
    "key": "ctrl+n",
    "command": "workbench.view.explorer",
    "when": "editorFocus && vim.active && vim.mode != 'Insert'"
  },
  {
    "key": "ctrl+n",
    "command": "workbench.action.toggleSidebarVisibility",
    "when": "filesExplorerFocus || solutionExplorer"
  },
  // explorer
  {
    "key": "a",
    "command": "explorer.newFile",
    "when": "filesExplorerFocus && !inputFocus"
  },
  {
    "key": "shift+a",
    "command": "explorer.newFolder",
    "when": "filesExplorerFocus && !inputFocus"
  },
  {
    "key": "d",
    "command": "deleteFile",
    "when": "filesExplorerFocus && !inputFocus"
  },
  {
    "key": "r",
    "command": "renameFile",
    "when": "filesExplorerFocus && !inputFocus"
  },
  {
    "key": "x",
    "command": "filesExplorer.cut",
    "when": "filesExplorerFocus && !inputFocus"
  },
  {
    "key": "y",
    "command": "filesExplorer.copy",
    "when": "filesExplorerFocus && !inputFocus"
  },
  {
    "key": "p",
    "command": "filesExplorer.paste",
    "when": "filesExplorerFocus && !inputFocus"
  },
  // quick open
  {
    "key": "ctrl+n",
    "command": "workbench.action.quickOpenSelectNext",
    "when": "inQuickOpen"
  },
  {
    "key": "ctrl+p",
    "command": "workbench.action.quickOpenSelectPrevious",
    "when": "inQuickOpen"
  }
]
